2222222222222222211111111111111111
2222222222222222211111111111111111
2222222222222222211111122221111111
2222222222222222211111122223333111
2222222222222222211331112333331111
2222222222222222211411114111222111
2222222222222222211111221111411211
2222222222222222222222222222222222
2222222222222222222222222222222222
2222222222222222222222222222222222
2222222222222222222222222222222222
2222222222222222222222222222222222
2222222222222222222222222222222222
2222222222222222222222222222222222
