2222222222222222222222222222222222
2222222222222222222222222222222222
2222222222222222222222222222222222
2222222222222222222222222222222222
2222222222222222222222222222222222
2222222222222222222222222222222222
2222222222222222222222222222222222
1133421111221111122222222222222222
1114213113333111122222222222222222
1334112233331111122222222222222222
1333423311133311122222222222222222
1221133121111111122222222222222222
1122111122211111122222222222222222
1111111111111111122222222222222222
